{
  "implemented": true,
  "name": "Xatu",
  "nationalPokedexNumber": 178,
  "primaryType": "psychic",
  "secondaryType": "flying",
  "abilities": [
    "synchronize",
    "earlybird",
    "h:magicbounce"
  ],
  "baseStats": {
    "hp": 65,
    "attack": 75,
    "defence": 70,
    "special_attack": 95,
    "special_defence": 70,
    "speed": 95
  },
  "behaviour": {
    "resting": {
      "canSleep": true
    },
    "moving": {
      "walk": {
        "canWalk": false
      },
      "canLook": false
    }
  },
  "catchRate": 75,
  "maleRatio": 0.5,
  "shoulderMountable": false,
  "baseExperienceYield": 165,
  "experienceGroup": "medium_fast",
  "eggCycles": 20,
  "eggGroups": [
    "flying"
  ],
  "drops": {
    "amount": "3",
    "entries": [
      {
        "item": "minecraft:feather",
        "quantityRange": "1-2",
        "percentage": 66
      },
      {
        "item": "minecraft:chicken"
      },
      {
        "item": "cobblemon:wise_glasses",
        "percentage": 5
      }
    ]
  },
  "moves": [
    "1:airslash",
    "1:leer",
    "1:peck",
    "1:storedpower",
    "1:tailwind",
    "1:teleport",
    "12:luckychant",
    "15:confuseray",
    "20:nightshade",
    "20:ominouswind",
    "28:psychoshift",
    "34:guardswap",
    "34:powerswap",
    "39:miracleeye",
    "41:psychic",
    "48:wish",
    "55:futuresight",
    "57:mefirst",
    "tm:aerialace",
    "tm:airslash",
    "tm:allyswitch",
    "tm:attract",
    "tm:batonpass",
    "tm:calmmind",
    "tm:captivate",
    "tm:confide",
    "tm:cosmicpower",
    "tm:dazzlinggleam",
    "tm:defog",
    "tm:doubleteam",
    "tm:dreameater",
    "tm:endure",
    "tm:facade",
    "tm:flash",
    "tm:fly",
    "tm:foulplay",
    "tm:frustration",
    "tm:futuresight",
    "tm:gigadrain",
    "tm:gigaimpact",
    "tm:grassknot",
    "tm:guardswap",
    "tm:heatwave",
    "tm:hiddenpower",
    "tm:hyperbeam",
    "tm:imprison",
    "tm:lightscreen",
    "tm:magicroom",
    "tm:naturalgift",
    "tm:pluck",
    "tm:powerswap",
    "tm:protect",
    "tm:psychic",
    "tm:psychup",
    "tm:psyshock",
    "tm:raindance",
    "tm:reflect",
    "tm:rest",
    "tm:return",
    "tm:roost",
    "tm:round",
    "tm:secretpower",
    "tm:shadowball",
    "tm:silverwind",
    "tm:skillswap",
    "tm:sleeptalk",
    "tm:snore",
    "tm:solarbeam",
    "tm:steelwing",
    "tm:storedpower",
    "tm:substitute",
    "tm:sunnyday",
    "tm:swagger",
    "tm:swift",
    "tm:telekinesis",
    "tm:thief",
    "tm:thunderwave",
    "tm:toxic",
    "tm:trick",
    "tm:trickroom",
    "tm:uturn",
    "tm:zenheadbutt",
    "tutor:aircutter",
    "tutor:allyswitch",
    "tutor:attract",
    "tutor:confuseray",
    "tutor:curse",
    "tutor:defog",
    "tutor:detect",
    "tutor:doubleedge",
    "tutor:doubleteam",
    "tutor:dreameater",
    "tutor:dualwingbeat",
    "tutor:endure",
    "tutor:expandingforce",
    "tutor:flash",
    "tutor:fly",
    "tutor:foulplay",
    "tutor:frustration",
    "tutor:futuresight",
    "tutor:gigadrain",
    "tutor:heatwave",
    "tutor:hiddenpower",
    "tutor:hyperbeam",
    "tutor:laserfocus",
    "tutor:leer",
    "tutor:magiccoat",
    "tutor:magicroom",
    "tutor:mimic",
    "tutor:nightmare",
    "tutor:nightshade",
    "tutor:ominouswind",
    "tutor:painsplit",
    "tutor:peck",
    "tutor:protect",
    "tutor:psychic",
    "tutor:psychup",
    "tutor:rest",
    "tutor:return",
    "tutor:roost",
    "tutor:signalbeam",
    "tutor:skillswap",
    "tutor:skyattack",
    "tutor:sleeptalk",
    "tutor:snore",
    "tutor:solarbeam",
    "tutor:substitute",
    "tutor:suckerpunch",
    "tutor:sunnyday",
    "tutor:swagger",
    "tutor:swift",
    "tutor:tailwind",
    "tutor:telekinesis",
    "tutor:teleport",
    "tutor:thief",
    "tutor:thunderwave",
    "tutor:toxic",
    "tutor:trick",
    "tutor:twister",
    "tutor:zenheadbutt"
  ],
  "labels": [
    "gen2"
  ],
  "pokedex": [
    "cobblemon.species.xatu.desc"
  ],
  "preEvolution": "natu",
  "evolutions": [],
  "baseScale": 1.1,
  "hitbox": {
    "width": 0.55,
    "height": 1.3,
    "fixed": false
  },
  "baseFriendship": 50,
  "evYield": {
    "hp": 0,
    "attack": 0,
    "defence": 0,
    "special_attack": 1,
    "special_defence": 0,
    "speed": 1
  },
  "height": 15,
  "weight": 150,
  "aspects": [],
  "cannotDynamax": false
}